digraph "Proje_Ödevi.MusicCD"
{
 // LATEX_PDF_SIZE
  edge [fontname="Helvetica",fontsize="10",labelfontname="Helvetica",labelfontsize="10"];
  node [fontname="Helvetica",fontsize="10",shape=record];
  Node2 [label="{Proje_Ödevi.MusicCD\n|+ singer\l+ type\l+ picture\l|}",height=0.2,width=0.4,color="black", fillcolor="grey75", style="filled", fontcolor="black",tooltip="MusicCD sınıfı. Sistemdeki müzik disklerinin oluşturulması için gereken sınıftır."];
  Node3 -> Node2 [dir="back",color="midnightblue",fontsize="10",style="solid",arrowtail="onormal",fontname="Helvetica"];
  Node3 [label="{Product\n|+ id\l+ price\l+ name\l|+ printProperties()\l}",height=0.2,width=0.4,color="black", fillcolor="white", style="filled",URL="$class_proje___xC3_x96devi_1_1_product.html",tooltip="abstract Product sınıfı. Sisteme kaydedilecek ve görüntülenecek olan ürünlerin oluşturulabilmesi için..."];
}
