digraph "Proje_Ödevi.AdminUser"
{
 // LATEX_PDF_SIZE
  edge [fontname="Helvetica",fontsize="10",labelfontname="Helvetica",labelfontsize="10"];
  node [fontname="Helvetica",fontsize="10",shape=record];
  Node1 [label="{Proje_Ödevi.AdminUser\n|+ CustomerID\l+ Name\l+ Adress\l+ Username\l+ Email\l+ Password\l+ confirmed\l|+ addAdmin()\l+ addCustomer()\l+ AddminThemAll()\l+ LoadUp()\l+ AdminInfoTaker()\l+ addNewBook()\l+ addNewMagazine()\l+ addNewMusicCD()\l}",height=0.2,width=0.4,color="black", fillcolor="grey75", style="filled", fontcolor="black",tooltip="AdminUser sınıfı. Sisteme giriş yapacak adminlerin bilgilerini tutan ve arkaplanda bazı fonksiyonalrı..."];
}
