digraph "Proje_Ödevi.ShoppingCart"
{
 // LATEX_PDF_SIZE
  edge [fontname="Helvetica",fontsize="10",labelfontname="Helvetica",labelfontsize="10"];
  node [fontname="Helvetica",fontsize="10",shape=record];
  Node1 [label="{Proje_Ödevi.ShoppingCart\n||+ printProducts()\l+ addProduct()\l+ removeProduct()\l+ placeOrder()\l+ cancelOrder()\l+ LoadUp()\l}",height=0.2,width=0.4,color="black", fillcolor="grey75", style="filled", fontcolor="black",tooltip="Shoping Cart Sınfı. Alışverişin yapılabilmesi için kullanılan sınıftır."];
}
