digraph "Proje_Ödevi.Product"
{
 // LATEX_PDF_SIZE
  edge [fontname="Helvetica",fontsize="10",labelfontname="Helvetica",labelfontsize="10"];
  node [fontname="Helvetica",fontsize="10",shape=record];
  Node0 [label="{Proje_Ödevi.Product\n|+ id\l+ price\l+ name\l|+ printProperties()\l}",height=0.2,width=0.4,color="black", fillcolor="grey75", style="filled", fontcolor="black",tooltip="abstract Product sınıfı. Sisteme kaydedilecek ve görüntülenecek olan ürünlerin oluşturulabilmesi için..."];
  Node0 -> Node1 [dir="back",color="midnightblue",fontsize="10",style="solid",arrowtail="onormal",fontname="Helvetica"];
  Node1 [label="{Proje_Ödevi.Book\n|+ ISBN\l+ author\l+ publisher\l+ page\l+ cover_page_picture\l|}",height=0.2,width=0.4,color="black", fillcolor="white", style="filled",URL="$class_proje___xC3_x96devi_1_1_book.html",tooltip="Book sınıfı. Sistemdeki kitapların oluşturulması için gereken sınıftır."];
  Node0 -> Node2 [dir="back",color="midnightblue",fontsize="10",style="solid",arrowtail="onormal",fontname="Helvetica"];
  Node2 [label="{Proje_Ödevi.ItemtoPurchase\n|+ product\l+ quantity\l|+ Item_Add()\l}",height=0.2,width=0.4,color="black", fillcolor="white", style="filled",URL="$class_proje___xC3_x96devi_1_1_itemto_purchase.html",tooltip=" "];
  Node0 -> Node3 [dir="back",color="midnightblue",fontsize="10",style="solid",arrowtail="onormal",fontname="Helvetica"];
  Node3 [label="{Proje_Ödevi.Magazine\n|+ issue\l+ type\l+ picture\l|}",height=0.2,width=0.4,color="black", fillcolor="white", style="filled",URL="$class_proje___xC3_x96devi_1_1_magazine.html",tooltip="Magazine sınıfı. Sistemdeki dergilerin oluşturulması için gereken sınıftır."];
  Node0 -> Node4 [dir="back",color="midnightblue",fontsize="10",style="solid",arrowtail="onormal",fontname="Helvetica"];
  Node4 [label="{Proje_Ödevi.MusicCD\n|+ singer\l+ type\l+ picture\l|}",height=0.2,width=0.4,color="black", fillcolor="white", style="filled",URL="$class_proje___xC3_x96devi_1_1_music_c_d.html",tooltip="MusicCD sınıfı. Sistemdeki müzik disklerinin oluşturulması için gereken sınıftır."];
}
